ml Homework: 08
…
  xnew %>% bind_cols(pred_df)
}

The first argument to the tidy_predict() function is a lm() model object and the second argument is new or test dataframe of inputs. When working with lm() and its predict() method, the functions will create the test design matrix consistent with the training design basis. It does so via the model objects formula which is contained within the lm() model object. The lm() object therefore takes care of the heavy lifting for us!

Make predictions with each of the six models you fit in Problem 01 using the visualization grid, viz_grid. The predictions should be assigned to the variables pred_lm_01 through pred_lm_06 where the number is consistent with the model number fit previously.

SOLUTION

tidy_predict(mod01, viz_grid)

## # A tibble: 909 x 7
##       x1    x2    pred ci_lwr ci_upr pred_lwr pred_upr
##    <dbl> <dbl>   <dbl>  <dbl>  <dbl>    <dbl>    <dbl>
##  1 -3.2     -3 -0.131  -0.968  0.707    -2.25     1.99
##  2 -3.14    -3 -0.118  -0.947  0.711    -2.23     2.00
##  3 -3.07    -3 -0.106  -0.926  0.715    -2.22     2.00
##  4 -3.01    -3 -0.0931 -0.906  0.719    -2.20     2.01
##  5 -2.94    -3 -0.0804 -0.885  0.724    -2.18     2.02
##  6 -2.88    -3 -0.0678 -0.864  0.728    -2.17     2.03
##  7 -2.82    -3 -0.0552 -0.844  0.733    -2.15     2.04
##  8 -2.75    -3 -0.0426 -0.823  0.738    -2.14     2.05
##  9 -2.69    -3 -0.0300 -0.803  0.743    -2.12     2.06
## 10 -2.62    -3 -0.0174 -0.783  0.748    -2.11     2.07
## # ... with 899 more rows
…
