ml Homework: 03
…
Model 6 has the highest average specificity, and is thus selected.

2e)

In order to visualize the ROC curve we need to understand how the resample hold-out test predictions are stored within the caret model objects. By default, hold-out test set predictions are not retained, in order to conserve memory. However, the ctrl_roc object set savePredictions = TRUE which overrides the default behavior and stores each resample test-set predictions.

The predictions are contained with the $pred field of the caret model object. The code chunk below displays the first few rows of the predictions for the mod_1_roc result for you. Note that the code chunk below is not evaluated by default. When you execute the code chunk below, you will see 7 columns. The column obs is the observed outcome and the column event is the predicted probability of the event. The pred column is the model classified outcome based on the default threshold of 50%. The rowIndex is the row from the original data set and serves to identify the row correctly. The Resample column tells us which resample fold the test point was associated with.

mod_1_roc$pred %>% tibble::as_tibble()

## # A tibble: 155 x 7
##    pred      obs        event non_event rowIndex parameter Resample
##    <fct>     <fct>      <dbl>     <dbl>    <int> <chr>     <chr>   
##  1 non_event non_event 0.132      0.868       25 none      Fold01  
##  2 event     event     0.759      0.241       29 none      Fold01  
##  3 event     non_event 0.501      0.499       39 none      Fold01  
##  4 non_event non_event 0.409      0.591      102 none      Fold01  
##  5 non_event event     0.0914     0.909      107 none      Fold01  
##  6 non_event non_event 0.439      0.561      132 none      Fold01  
##  7 event     event     0.732      0.268      148 none      Fold01  
##  8 event     event     0.793      0.207       11 none      Fold02  
##  9 event     event     0.880      0.120       56 none      Fold02  
## 10 event     event     0.565      0.435       60 none      Fold02  
## # ... with 145 more rows

The ROC curve is calculated by comparing the model predicted probability to all possible thresholds to create many different classifications. Those different classifications are used to calculate many different confusion matrices. Thus, the columns of primary interest in the prediction object displayed above are the obs and event columns.

You do not need to create the ROC curve manually in this assignment. Instead you will use the roc_curve() function from the yardstick package. The roc_curve() function has three primary arguments. The first is a data object which contains the predictions in a tidy format. The second is the name of the column that corresponds to the observed outcome (the truth or reference). The third is the name of the column in the data set that corresponds to the model predicted event probability.

Pipe the prediction data object for the mod_1_roc caret object to the roc_curve(). The obs column is the observed outcome and the event column is the model predicted event probability. Display the result to the screen to confirm the roc_curve() function worked. If it did the first few rows should correspond to very low threshold values.

Why does the sensitivity have values at or near 1 when the .threshold is so low?

SOLUTION

### add your code here
roc_curve(mod_1_roc$pred, "obs", "event")

## # A tibble: 157 x 3
##    .threshold specificity sensitivity
##         <dbl>       <dbl>       <dbl>
##  1 -Inf            0            1    
##  2    0.00858      0            1    
##  3    0.0173       0            0.987
##  4    0.0341       0            0.973
##  5    0.0493       0            0.96 
##  6    0.0499       0.0125       0.96 
##  7    0.0561       0.0125       0.947
##  8    0.0774       0.025        0.947
##  9    0.0840       0.0375       0.947
## 10    0.0866       0.05         0.947
## # ... with 147 more rows
…
The code chunk below is also completed for you. It passes the caret model objects with the saved predictions to the compile_all_model_preds() function. The result is printed for you below so you can see the column names. Notice there is a new column model_name which stores the name of the model associated with the resample hold-out test set predictions. By default the code chunk below is not executed.

all_model_preds <- compile_all_model_preds(mod_1_roc, mod_2_roc, mod_3_roc, 
                                           mod_4_roc, mod_5_roc,
                                           mod_6_roc, mod_7_roc, mod_8_roc)

all_model_preds

## # A tibble: 1,240 x 4
##    obs        event Resample model_name
##    <fct>      <dbl> <chr>    <chr>     
##  1 non_event 0.132  Fold01   1         
##  2 event     0.759  Fold01   1         
##  3 non_event 0.501  Fold01   1         
##  4 non_event 0.409  Fold01   1         
##  5 event     0.0914 Fold01   1         
##  6 non_event 0.439  Fold01   1         
##  7 event     0.732  Fold01   1         
##  8 event     0.793  Fold02   1         
##  9 event     0.880  Fold02   1         
## 10 event     0.565  Fold02   1         
## # ... with 1,230 more rows
…
