ml Homework: 07
…
Generate posterior samples.

set.seed(87123)
post_samples_01 <- generate_lm_post_samples(laplace_01, length(laplace_01$mode)-1, 2500)
post_samples_01

## # A tibble: 2,500 x 4
##      beta_00 beta_01 varphi sigma
##        <dbl>   <dbl>  <dbl> <dbl>
##  1  0.0383     -1.04 -0.848 0.428
##  2  0.265      -1.05 -1.25  0.286
##  3  0.188      -1.10 -1.28  0.278
##  4  0.0181     -1.03 -0.650 0.522
##  5  0.0689     -1.01 -1.27  0.282
##  6  0.0370     -1.05 -1.15  0.316
##  7  0.105      -1.05 -0.999 0.368
##  8 -0.000627   -1.03 -1.11  0.330
##  9  0.0525     -1.01 -1.07  0.342
## 10  0.120      -1.06 -1.36  0.256
## # ... with 2,490 more rows
…
Get a glimpse of the structure of spline_matrices.

glimpse(spline_matrices)

## Rows: 25
## Columns: 2
## $ design_matrix <list> <<matrix[150 x 2]>>, <<matrix[150 x 4]>>, <<matrix[150 ~
## $ test_matrix   <list> <<matrix[50 x 2]>>, <<matrix[50 x 4]>>, <<matrix[50 x 6~

Display the elements of spline_matrices to the screen.

spline_matrices

## # A tibble: 25 x 2
##    design_matrix    test_matrix    
##    <list>           <list>         
##  1 <dbl [150 x 2]>  <dbl [50 x 2]> 
##  2 <dbl [150 x 4]>  <dbl [50 x 4]> 
##  3 <dbl [150 x 6]>  <dbl [50 x 6]> 
##  4 <dbl [150 x 8]>  <dbl [50 x 8]> 
##  5 <dbl [150 x 10]> <dbl [50 x 10]>
##  6 <dbl [150 x 12]> <dbl [50 x 12]>
##  7 <dbl [150 x 14]> <dbl [50 x 14]>
##  8 <dbl [150 x 16]> <dbl [50 x 16]>
##  9 <dbl [150 x 18]> <dbl [50 x 18]>
## 10 <dbl [150 x 20]> <dbl [50 x 20]>
## # ... with 15 more rows
…
